action: 343
reward: 0.8971428571428571
action: 115
reward: 0.9828571428571429
action: 32
reward: 0.8457142857142856
action: 305
reward: 0.8779428571428571
action: 284
reward: 0.8704761904761905
action: 32
reward: 0.8971428571428571
action: 426
reward: 0.9219047619047619
action: 374
reward: 0.7958095238095237
action: 300
reward: 0.8019047619047619
action: 374
reward: 0.9561904761904763
action: 34
reward: 0.939047619047619
action: 282
reward: 0.8458666666666668
action: 280
reward: 0.9314285714285714
action: 8
reward: 0.939047619047619
action: 301
reward: 0.9219047619047619
action: 378
reward: 0.8410666666666667
end reward for following:  14.265447619047618
[[[ 0 -2  0  0 -1 -1 -1 -1  5  5  5  0  0  0]
  [ 0  0  0  0 -1 -1 -1 -1  5  5  5  0  0  0]
  [ 0  8  0  0 -1 -1 -1 -1  5  5  5  0  0  0]
  [ 0  8  0  0 -1 -1 -1 -1  5  4  5  0  0  0]
  [ 8  8  0  0  0  0  0  0  0  0  0 -1 -1 -1]
  [ 8  7  0  0  0  0  2  2  2  1  0 -1 -1 -1]
  [ 0 11 10 11 11  0  2  2  2  2  0  0  0  0]
  [ 0 11 11 11 11  0  0  0  2  2  0  0  0  0]
  [ 0 11  0  0  0  0  0  0  2  2  0  0  0  0]
  [ 0 11  0  0  0  0  0  0  0  0  0  0  0  0]
  [ 0 11 11 11 11  0  0  0  0  0  0  0  0  0]
  [-1 -1 -1 -1 -1 -1  0 -1 -1 -1 -1  0 -1 -1]
  [-1 -1 -1 -1 -1 -1  0 -1 -1 -1 -1  0 -1 -1]
  [ 0  0  0  0  0  0  0  0  0  0  0  0 -1 -1]
  [ 0  0  0  0  0  0 -3  0  0  0  0  0 -1 -1]]

 [[ 0 -2  0  0 -1 -1 -1 -1  5  5  5  0  0  0]
  [ 0  0  0  0 -1 -1 -1 -1  5  5  5  0  0  0]
  [ 0  0  0  0 -1 -1 -1 -1  5  5  5  0  0  0]
  [ 0  0  0  0 -1 -1 -1 -1  5  4  5  0  0  0]
  [ 0  0  0  0  0  0  0  0  0  0  0 -1 -1 -1]
  [ 0  2  2  2  1  0  0  0  0  0  0 -1 -1 -1]
  [ 0  2  2  2  2  0  0  0  0 11 11 11 11  0]
  [ 0  0  0  2  2  0  0  0  7  8  0  0 11  0]
  [ 0  0  0  2  2  0  0  0  8  8  0  0 11  0]
  [ 0  0  0  0  0  0  0  0  8 11 11 11 11  0]
  [ 0  0  0  0  0  0  0  0  8 11 11 10 11  0]
  [-1 -1 -1 -1 -1 -1  0 -1 -1 -1 -1  0 -1 -1]
  [-1 -1 -1 -1 -1 -1  0 -1 -1 -1 -1  0 -1 -1]
  [ 0  0  0  0  0  0  0  0  0  0  0  0 -1 -1]
  [ 0  0  0  0  0  0 -3  0  0  0  0  0 -1 -1]]

 [[ 0 -2  0  0 -1 -1 -1 -1  0  8  0  0  0  0]
  [ 0  0  0  0 -1 -1 -1 -1  0  8  0  0  0  0]
  [ 0  0  0  0 -1 -1 -1 -1  8  8  0  0  0  0]
  [ 0  0  0  0 -1 -1 -1 -1  8  7  0  0  0  0]
  [ 0  0  0  0  0  0  0  0  0  0  0 -1 -1 -1]
  [11 10 11 11  0  2  2  2  1  0  0 -1 -1 -1]
  [11 11 11 11  0  2  2  2  2  5  4  5  0  0]
  [11  0  0  0  0  0  0  2  2  5  5  5  0  0]
  [11  0  0  0  0  0  0  2  2  5  5  5  0  0]
  [11 11 11 11  0  0  0  0  0  5  5  5  0  0]
  [ 0  0  0  0  0  0  0  0  0  0  0  0  0  0]
  [-1 -1 -1 -1 -1 -1  0 -1 -1 -1 -1  0 -1 -1]
  [-1 -1 -1 -1 -1 -1  0 -1 -1 -1 -1  0 -1 -1]
  [ 0  0  0  0  0  0  0  0  0  0  0  0 -1 -1]
  [ 0  0  0  0  0  0 -3  0  0  0  0  0 -1 -1]]

 [[ 0 -2  0  8 -1 -1 -1 -1  0  0  0  0  0  0]
  [ 0  0  0  8 -1 -1 -1 -1  0  0  0  0  0  0]
  [ 0  0  8  8 -1 -1 -1 -1  0  0  0  0  0  0]
  [ 0  0  8  7 -1 -1 -1 -1  0  0  0  0  0  0]
  [ 0  0  0  0  0  0  0  0  0  0  0 -1 -1 -1]
  [11 10 11 11  0  5  5  5  5  0  0 -1 -1 -1]
  [11 11 11 11  0  4  5  5  5  0  2  2  0  0]
  [11  0  0  0  0  5  5  5  5  0  2  2  0  0]
  [11  0  0  0  0  0  0  0  0  0  2  2  2  2]
  [11 11 11 11  0  0  0  0  0  0  1  2  2  2]
  [ 0  0  0  0  0  0  0  0  0  0  0  0  0  0]
  [-1 -1 -1 -1 -1 -1  0 -1 -1 -1 -1  0 -1 -1]
  [-1 -1 -1 -1 -1 -1  0 -1 -1 -1 -1  0 -1 -1]
  [ 0  0  0  0  0  0  0  0  0  0  0  0 -1 -1]
  [ 0  0  0  0  0  0 -3  0  0  0  0  0 -1 -1]]]